Lecture 09
…
<center>
<img src="files/10-fcat-site.png" width="80%" />
</center>

---

# Let's look at the data

```r
nascar_df
```

```
## # A tibble: 68,858 × 12
##    school_id school_name   grade  year zscore nascar_lead nascar_lead_weighted years_leaded indust…¹ media…² unemp…³ num_s…⁴
##        <dbl> <chr>         <dbl> <dbl>  <dbl>       <dbl>                <dbl>        <dbl>    <dbl>   <dbl>   <dbl>   <dbl>
##  1        56 HAMILTON ELEM     3  2003 -0.186        72.2                 2.53            8  822328.   49267    0.05     112
##  2        56 HAMILTON ELEM     4  2003  0.101        80.4                 2.81            8  822639.   49267    0.05     117
##  3        56 HAMILTON ELEM     5  2003 -0.206        88.0                 3.08            8  822909.   49267    0.05     120
##  4        56 HAMILTON ELEM     3  2004 -0.686        74.0                 2.59            8  967077.   50842    0.04     131
##  5        56 HAMILTON ELEM     4  2004 -0.633        82.4                 2.88            8  967352.   50842    0.04     105
##  6        56 HAMILTON ELEM     5  2004  0.352        90.5                 3.17            8  967663.   50842    0.04     109
##  7        56 HAMILTON ELEM     3  2005 -1.14         77.0                 2.69            8 1061570.   52390    0.03     110
##  8        56 HAMILTON ELEM     4  2005 -0.649        84.7                 2.97            8 1062071.   52390    0.03     137
##  9        56 HAMILTON ELEM     5  2005 -0.336        92.0                 3.26            8 1062346.   52390    0.03      97
## 10        56 HAMILTON ELEM     3  2006 -0.333        79.9                 2.80            8 1164072.   56655    0.02     133
## # … with 68,848 more rows, and abbreviated variable names ¹​industrial_lead, ²​median_income, ³​unemp_rate, ⁴​num_students
```

---

# My sister is in these observations!

```r
nascar_df |> # only keep Saturn Elementary School
  filter(school_name == "SATURN ELEM")
```

```
## # A tibble: 21 × 12
##    school_id school_name grade  year  zscore nascar_lead nascar_lead_weighted years_leaded industr…¹ media…² unemp…³ num_s…⁴
##        <dbl> <chr>       <dbl> <dbl>   <dbl>       <dbl>                <dbl>        <dbl>     <dbl>   <dbl>   <dbl>   <dbl>
##  1      2067 SATURN ELEM     3  2003  0.105            0                    0            0   823844.   42192    0.05      96
##  2      2067 SATURN ELEM     4  2003 -0.0633           0                    0            0   824155.   42192    0.05     105
##  3      2067 SATURN ELEM     5  2003  0.163            0                    0            0   824425.   42192    0.05     107
##  4      2067 SATURN ELEM     3  2004  0.655            0                    0            0   967646.   44248    0.04      89
##  5      2067 SATURN ELEM     4  2004  0.586            0                    0            0   967921.   44248    0.04      84
##  6      2067 SATURN ELEM     5  2004  0.679            0                    0            0   968232.   44248    0.04      87
##  7      2067 SATURN ELEM     3  2005  1.03             0                    0            0  1059953.   43403    0.03      99
##  8      2067 SATURN ELEM     4  2005  0.131            0                    0            0  1060454.   43403    0.03      96
##  9      2067 SATURN ELEM     5  2005  0.696            0                    0            0  1060729.   43403    0.03      82
## 10      2067 SATURN ELEM     3  2006  0.599            0                    0            0  1161336.   46415    0.03      99
## # … with 11 more rows, and abbreviated variable names ¹​industrial_lead, ²​median_income, ³​unemp_rate, ⁴​num_students
```
…
