Lecture 12
…
---

# Estimating the effect of ozone

Let's work through an example where we estimate the effect of ozone

You have a dataframe `house_data` available on RStudio Cloud:

```r
house_data
```

```
## # A tibble: 757 × 7
##    house_num ozone num_bedrooms num_bathrooms sq_feet log_price   price
##        <int> <dbl>        <int>         <dbl>   <dbl>     <dbl>   <dbl>
##  1         1  9.60            4           3      577.      12.7 341991.
##  2         2  4.49            4           3     1111.      12.7 334851.
##  3         3 15.6             4           1      820.      12.0 159567.
##  4         6 10.2             3           2      886.      12.7 325459.
##  5         8 30.8             4           3     4909.      12.9 399579.
##  6         9 14.7             2           1.5    798.      11.9 152339.
##  7        10  3.80            4           1.5    946.      12.5 278165.
##  8        11  5.62            4           1     1912.      12.2 206147.
##  9        12  8.62            3           1.5    720.      12.3 226051.
## 10        13 16.9             1           1     2057.      12.9 384760.
## # … with 747 more rows
```
…
