Lecture 14
…
---

# Burke, Hsiang, Miguel (2015)

```r
df
```

```
## # A tibble: 7,351 × 8
##    iso   country      year gdp_growth ag_gdp_growth non_ag_gdp_growth precip  temp
##    <chr> <chr>       <dbl>      <dbl>         <dbl>             <dbl>  <dbl> <dbl>
##  1 AFG   Afghanistan  2003    0.0408        -0.0127            0.0747   328.  12.7
##  2 AFG   Afghanistan  2004   -0.0278        -0.290             0.103    276.  13.6
##  3 AFG   Afghanistan  2005    0.0715         0.129             0.0471   409.  12.5
##  4 AFG   Afghanistan  2006    0.0235        -0.0830            0.0675   472.  13.0
##  5 AFG   Afghanistan  2007    0.101          0.109             0.0979   361.  12.9
##  6 AFG   Afghanistan  2008    0.00989       -0.187             0.0768   360.  13.2
##  7 AFG   Afghanistan  2009    0.166          0.344             0.107    354.  12.8
##  8 AFG   Afghanistan  2010    0.0564        -0.0904            0.107    238.  14.2
##  9 AGO   Angola       1971   NA             NA                NA        979.  21.4
## 10 AGO   Angola       1972   NA             NA                NA       1019.  21.5
## # … with 7,341 more rows
```
…
